{
  "project_info": {
    "project_number": "915595426660",
    "project_id": "manbij-mall",
    "storage_bucket": "manbij-mall.appspot.com"
  },
  "client": [
    {
      "client_info": {
        "mobilesdk_app_id": "1:915595426660:android:188b2942abddbd258d9871",
        "android_client_info": {
          "package_name": "com.progiom.manbijmall"
        }
      },
      "oauth_client": [
        {
          "client_id": "915595426660-9pk1a5vbtsajitg6omusqphd6bcc4bb1.apps.googleusercontent.com",
          "client_type": 1,
          "android_info": {
            "package_name": "com.progiom.manbijmall",
            "certificate_hash": "73293274fbe1c7835f9948bbde054d28a8741e10"
          }
        },
        {
          "client_id": "915595426660-ulhi2mtos1b62enmd9h1s2n4almrio19.apps.googleusercontent.com",
          "client_type": 1,
          "android_info": {
            "package_name": "com.progiom.manbijmall",
            "certificate_hash": "389df1ba145e3dc056e417c1a2b6efe2b2cd52d3"
          }
        },
        {
          "client_id": "915595426660-vp5jvbm2n40gbqoj259dn1lhm7a8643a.apps.googleusercontent.com",
          "client_type": 3
        }
      ],
      "api_key": [
        {
          "current_key": "AIzaSyBTsjip9YUZkeMdG5tVmErK59pzbNeRNjE"
        }
      ],
      "services": {
        "appinvite_service": {
          "other_platform_oauth_client": [
            {
              "client_id": "915595426660-alopjem78uf1mshp5qen1p6su1ia5mpf.apps.googleusercontent.com",
              "client_type": 3
            },
            {
              "client_id": "915595426660-aq2fr27p3vou316ik3s7oll7cr7ftofm.apps.googleusercontent.com",
              "client_type": 2,
              "ios_info": {
                "bundle_id": "com.progiom.manbijmall"
              }
            }
          ]
        }
      }
    }
  ],
  "configuration_version": "1"
}